[
{
    "name": "DEMO - letak.ba",
    "uuid": "08c1a751-dd46-446c-b820-b9b713e1eafe",
    "email": "orders@example.com",
    "products": [
	{
	    "name": "Letci",
	    "description": "Brza i jednostavna izrada letaka u standardnim formatima...",
		"icon": "/img/flyers.jpg",
		"displayOrder": 1,
		"productAttributes": [
	        {
				"name": "Format",
				"scriptName": "size",
	            "productAttributeValues": [
					{
						"scriptValue": "A4",
	                    "value": "A4, 210x297mm"
	                },
	                {
						"scriptValue": "A5",
	                    "value": "A5, 148,5x210mm"
	                },
	                {
						"scriptValue": "A6",
	                    "value": "A6, 105x148,5mm"
	                }
	            ]
	        },
	        {
				"name": "Količina",
				"scriptName": "quantity",
	            "productAttributeValues": [
	                {
	                    "value": "1000"
	                },
	                {
	                    "value": "5000"
	                },
	                {
	                    "value": "10000"
	                }
	            ]
	        },
	        {
				"name": "Način isporuke",
				"scriptName": "delivery",
	            "productAttributeValues": [
	                {
						"scriptValue": "pick-up",
						"value": "Preuzimam lično"
	                },
	                {
						"scriptValue": "express_post",
	                    "value": "Brza pošta (EuroExpress)"
	                }
	            ]
	        }
	    ],
        "productParameters": [
			{
				"name": "brza_posta",
				"scriptName": "",
				"type": "",
				"defaultValue": "9.0",
				"productParameterValues": []
			},
			{
				"name": "Setup",
				"scriptName": "",
				"type": "",
				"defaultValue": "50",
				"productParameterValues": []
			},
			{
				"name": "sheet_price",
				"scriptName": "",
				"type": "",
				"defaultValue": "0.40",
				"productParameterValues": [
					{
						"value": "0.10"
					},
					{
						"value": "0.20"
					},
					{
						"value": "0.40"
					}
				]
			}
		],
        "productScripts": [
			{
				"name": "script 1",
				"scriptOrder": 1,
				"source": [
					"sheet_price = 1.0;",
					"switch( attrS(\"size\") ) {",
					"case \"A4\":",
					"    sheet_price = paramValueD(\"sheet_price\", 0);",
					"break;",
					"case \"A5\":",
					"    sheet_price = paramValueD(\"sheet_price\", 1);",
					"break;",
					"case \"A6\":",
					"    sheet_price = paramValueD(\"sheet_price\", 2);",
					"break;",
					"}",
					"",
					"",
					"total = attrD(\"quantity\") * sheet_price;",
					"",
					"",
					"if( attrS(\"delivery\").equals(\"express_post\") ) {",
					"    total = total + paramD(\"brza_posta\");",
					"}",
					"",
					"quote = total;",
					""
				]
			}
		]
	}
	]
}
]
