[
{
    "name": "TEMPLATE - print-in-a-box",
    "uuid": "f50309e2-a9a4-454f-b4bb-fb0b7f3b13ba",
    "email": "orders@example.com",
    "products": [
    {
        "name": "Standard Business Cards",
        "description": "Donec id elit non mi porta gravida at eget metus. Fusce dapibus, tellus ac cursus commodo, tortor mauris condimentum nibh, ut fermentum massa justo sit amet risus. Etiam porta sem malesuada magna mollis euismod. Donec sed odio dui. ",
        "productAttributes": [
            {
                "name": "Size"
            },
            {
                "name": "Quantity"
            },
            {
                "name": "Coating Type"
            },
            {
                "name": "Paper Type"
            },
            {
                "name": "Colors"
            },
            {
                "name": "Print Turnaround"
            }
        ]
    },
    {
        "name": "Flyers",
        "description": "Donec id elit non mi porta gravida at eget metus. Fusce dapibus, tellus ac cursus commodo, tortor mauris condimentum nibh, ut fermentum massa justo sit amet risus. Etiam porta sem malesuada magna mollis euismod. Donec sed odio dui. ",
        "productAttributes": [
            {
                "name": "Size"
            },
            {
                "name": "Need a Custom Size?"
            },
            {
                "name": "Quantity"
            },
            {
                "name": "Coating Type"
            },
            {
                "name": "Paper Type"
            },
            {
                "name": "Colors"
            },
            {
                "name": "Print Turnaround"
            }
        ]
    },
    {
        "name": "Brochures",
        "description": "Donec id elit non mi porta gravida at eget metus. Fusce dapibus, tellus ac cursus commodo, tortor mauris condimentum nibh, ut fermentum massa justo sit amet risus. Etiam porta sem malesuada magna mollis euismod. Donec sed odio dui. ",
        "productAttributes": [
            {
                "name": "Size"
            },
            {
                "name": "Need a Custom Size?"
            },
            {
                "name": "Quantity"
            },
            {
                "name": "Coating Type"
            },
            {
                "name": "Paper Type"
            },
            {
                "name": "Colors"
            },
            {
                "name": "Folding"
            },
            {
                "name": "Perforation"
            },
            {
                "name": "Must Be Exact Trim Size"
            },
            {
                "name": "Tabbing"
            },
            {
                "name": "Adjust My Artwork"
            },
            {
                "name": "Print Turnaround"
            }
        ]
    },
    {
        "name": "Letterhead",
        "description": "Donec id elit non mi porta gravida at eget metus. Fusce dapibus, tellus ac cursus commodo, tortor mauris condimentum nibh, ut fermentum massa justo sit amet risus. Etiam porta sem malesuada magna mollis euismod. Donec sed odio dui. ",
        "productAttributes": [
            {
                "name": "Size"
            },
            {
                "name": "Quantity"
            },
            {
                "name": "Bleeds"
            },
            {
                "name": "Paper Type"
            },
            {
                "name": "Colors"
            },
            {
                "name": "Must Be Exact Trim Size"
            },
            {
                "name": "Adjust My Artwork"
            },
            {
                "name": "Print Turnaround"
            }
        ]
    },
    {
        "name": "Short-Run Posters",
        "description": "Donec id elit non mi porta gravida at eget metus. Fusce dapibus, tellus ac cursus commodo, tortor mauris condimentum nibh, ut fermentum massa justo sit amet risus. Etiam porta sem malesuada magna mollis euismod. Donec sed odio dui. ",
        "productAttributes": [
            {
                "name": "Size"
            },
            {
                "name": "Quantity"
            },
            {
                "name": "Paper Type"
            },
            {
                "name": "Colors"
            },
            {
                "name": "Must Be Exact Trim Size"
            },
            {
                "name": "Adjust My Artwork"
            },
            {
                "name": "Print Turnaround"
            }
        ]
    },
    
    
    
    
    {
        "name": "Pole Flags",
        "description": "Donec id elit non mi porta gravida at eget metus. Fusce dapibus, tellus ac cursus commodo, tortor mauris condimentum nibh, ut fermentum massa justo sit amet risus. Etiam porta sem malesuada magna mollis euismod. Donec sed odio dui. ",
        "productAttributes": [
            {
                "name": "Size"
            },
            {
                "name": "Quantity"
            },
            {
                "name": "Paper Type"
            },
            {
                "name": "Colors"
            },
            {
                "name": "Must Be Exact Trim Size"
            },
            {
                "name": "Adjust My Artwork"
            },
            {
                "name": "Print Turnaround"
            }
        ]
    },
    {
        "name": "Menus",
        "description": "Donec id elit non mi porta gravida at eget metus. Fusce dapibus, tellus ac cursus commodo, tortor mauris condimentum nibh, ut fermentum massa justo sit amet risus. Etiam porta sem malesuada magna mollis euismod. Donec sed odio dui. ",
        "productAttributes": [
            {
                "name": "Size"
            },
            {
                "name": "Quantity"
            },
            {
                "name": "Paper Type"
            },
            {
                "name": "Coating Type"
            },
            {
                "name": "Colors"
            },
            {
                "name": "Print Turnaround"
            },
            {
                "name": "Scoring"
            },
            {
                "name": "Folding"
            },
            {
                "name": "Perforation"
            },
            {
                "name": "Rounded Corners"
            },
            {
                "name": "Additional Colors"
            },
            {
                "name": "Must Be Exact Trim Size"
            },
            {
                "name": "Adjust My Artwork"
            }
        ]
    },
    {
        "name": "Outside Banners",
        "description": "Donec id elit non mi porta gravida at eget metus. Fusce dapibus, tellus ac cursus commodo, tortor mauris condimentum nibh, ut fermentum massa justo sit amet risus. Etiam porta sem malesuada magna mollis euismod. Donec sed odio dui. ",
        "productAttributes": [
            {
                "name": "Size"
            },
            {
                "name": "Need a Custom Size?"
            },
            {
                "name": "Quantity"
            },
            {
                "name": "Paper Type"
            },
            {
                "name": "Grommets"
            },
            {
                "name": "Hems & Gloss Finish"
            },
            {
                "name": "Colors"
            },
            {
                "name": "Print Turnaround"
            }
        ]
    },
    {
        "name": "Bumper Stickers",
        "description": "Donec id elit non mi porta gravida at eget metus. Fusce dapibus, tellus ac cursus commodo, tortor mauris condimentum nibh, ut fermentum massa justo sit amet risus. Etiam porta sem malesuada magna mollis euismod. Donec sed odio dui. ",
        "productAttributes": [
            {
                "name": "Size"
            },
            {
                "name": "Quantity"
            },
            {
                "name": "Paper Type"
            },
            {
                "name": "Print Turnaround"
            }
        ]
    },
    {
        "name": "Self Published Books",
        "description": "Donec id elit non mi porta gravida at eget metus. Fusce dapibus, tellus ac cursus commodo, tortor mauris condimentum nibh, ut fermentum massa justo sit amet risus. Etiam porta sem malesuada magna mollis euismod. Donec sed odio dui. ",
        "productAttributes": [
            {
                "name": "Size"
            },
            {
                "name": "Quantity"
            },
            {
                "name": "Number of Pages"
            },
            {
                "name": "Cover Stock"
            },
            {
                "name": "Cover Color"
            },
            {
                "name": "Page Paper Type"
            },
            {
                "name": "Page Color"
            },
            {
                "name": "Print Turnaround"
            },
            {
                "name": "Proof"
            },
            {
                "name": "Adjust My Artwork"
            },
            {
                "name": "Binding"
            }
        ]
    }
    ]
}
]
